17564;Valence;Grenoble;6:15;7:31;17;60;REDUC
17566;Valence;Grenoble;6:45;7:55;17;60;NAN
17568;Valence;Grenoble;7:15;8:32;17;60;NAN
17524;Grenoble;Valence;16:30;17:45;17;60;NAN
17525;Grenoble;Valence;16:55;17:55;17;60;SUPPL
17526;Grenoble;Valence;17:30;18:46;17;60;NAN
17528;Grenoble;Valence;18:30;19:45;17;60;REDUC
86181;Valence;Montelimar;12:30;12:56;9;80;REDUC
86183;Valence;Montelimar;14:10;14:30;9;80;SUPPL
86187;Valence;Montelimar;16:30;16:56;9;80;NAN
86174;Montelimar;Valence;6:30;6:55;9;80;NAN
86175;Montelimar;Valence;7:10;7:30;9;80;SUPPL
86177;Montelimar;Valence;7:30;7:55;9;80;NAN
86178;Montelimar;Valence;8:00;8:25;9;80;NAN
86179;Montelimar;Valence;8:30;8:55;9;80;REDUC
9862;Valence;Paris Gare de Lyon;15:15;17:49;109;50;REDUC
6194;Valence;Paris Gare de Lyon;16:15;19:15;92;00;NAN
6208;Valence;Paris Gare de Lyon;17:15;19:53;92;80;NAN
6035;Paris Gare de Lyon;Valence;7:41;10:11;113;00;REDUC
9713;Paris Gare de Lyon;Valence;10:07;12:19;90;00;NAN
6063;Paris Gare de Lyon;Valence;10:07;13:15;92;20;NAN
